…
results <- map_df(mu_list, function(mu) {
  map_dfr(1:num_simulations, ~simulate_t_test(mu, n, sigma))
}, .id = "mu")

results %>%
  mutate(mu = as.numeric(str_extract(results$mu, "\\d+")))
```

    ## # A tibble: 30,000 × 3
    ##       mu  mu_hat p_value
    ##    <dbl>   <dbl>   <dbl>
    ##  1     1 -0.532  0.589  
    ##  2     1 -0.768  0.431  
    ##  3     1  1.20   0.171  
    ##  4     1  2.01   0.0304 
    ##  5     1  0.909  0.328  
    ##  6     1  2.52   0.00724
    ##  7     1  0.0980 0.890  
    ##  8     1 -0.300  0.749  
    ##  9     1  0.402  0.748  
    ## 10     1  1.28   0.256  
    ## # ℹ 29,990 more rows
…
